{
    "name": "Painter2d",
    "rootNamespace": "Painter2D",
    "references": [],
    "includePlatforms": [],
    "excludePlatforms": [],
    "allowUnsafeCode": true,
    "overrideReferences": false,
    "precompiledReferences": [],
    "autoReferenced": true,
    "defineConstraints": [],
    "versionDefines": [],
    "noEngineReferences": false
}