{
    "name": "BasicSample",
    "rootNamespace": "Painter2D",
    "references": [
        "GUID:bf40fdb8e824c274db0b16c2511391b5"
    ],
    "includePlatforms": [],
    "excludePlatforms": [],
    "allowUnsafeCode": true,
    "overrideReferences": false,
    "precompiledReferences": [],
    "autoReferenced": true,
    "defineConstraints": [],
    "versionDefines": [],
    "noEngineReferences": false
}